<svg xmlns="http://www.w3.org/2000/svg" width="38.551" height="36.14" viewBox="0 0 38.551 36.14">
  <g id="browser_1_" data-name="browser (1)" transform="translate(-0.001 -16.014)">
    <path id="Path_11" data-name="Path 11" d="M38.2,32.626,23.216,17.643a5.579,5.579,0,0,0-7.88,0L.353,32.626a1.2,1.2,0,0,0,1.7,1.7l.956-.956V48.689a3.464,3.464,0,0,0,3.464,3.464H12.5a.753.753,0,0,0,.753-.753V40.256a3.765,3.765,0,0,1,3.765-3.765h4.518A3.765,3.765,0,0,1,25.3,40.256V51.4a.753.753,0,0,0,.753.753h6.024a3.464,3.464,0,0,0,3.464-3.464V33.374l.956.956a1.2,1.2,0,1,0,1.7-1.7Z" transform="translate(0 0)" fill="#e16428"/>
  </g>
</svg>
